INDEX VERSION 1.131+C:\Users\efyca\AnypointStudio\studio-workspace-group-d- revised\.metadata\.plugins\org.eclipse.jdt.core
415828706.index
3681732469.index
3826178604.index
1040155291.index
2745328729.index
2039340697.index
2628565105.index
3790659536.index
516847593.index
2328269416.index
1233916332.index
3290867337.index
2919012525.index
1338389144.index
2035873051.index
780791885.index
62882637.index
561300425.index
4036360606.index
3179930965.index
2974993353.index
145686409.index
664988208.index
3848026490.index
